Production Forecasts
…
atleast1000 <- plat.distr %>% group_by(Name,facility) %>%  summarise(n=n(),LastYear=year(last(date)))  %>% ungroup() %>%  filter(n > 999) %>% arrange(desc(n)) 
atleast1000 %>% select(-Name)

## # A tibble: 24 x 3
##    facility     n LastYear
##    <chr>    <int>    <int>
##  1 F7109    54339     2020
##  2 F8116    36937     2020
##  3 F8316    26702     2020
##  4 F8070    24256     2020
##  5 F8245    16965     2020
##  6 F8274     6413     2020
##  7 F7106     5822     2020
##  8 F8185     5538     2020
##  9 F8229     4751     2020
## 10 F8050     4545     2020
## # … with 14 more rows
…
Example data

#Accept all the products
#Only take these facilites 
#"F8116","F8070","F7109","F8316"

dailycounts <- plat.distr %>% filter(facility %in% c("F8116","F8070","F7109","F8316")) %>%  group_by(Name,date) %>%  summarise(n=n())
#To anonymise make all counts of 1-5 as "1-5"
dailycounts$n[dailycounts$n < 6] <- "1-5"
dailycounts$Name <- as.factor(dailycounts$Name)
levels(dailycounts$Name) <- c("TAYS","HUS","OYS","TYKS")
dailycounts

## # A tibble: 7,727 x 3
## # Groups:   Name [4]
##    Name  date       n    
##    <fct> <date>     <chr>
##  1 TAYS  2013-10-28 8    
##  2 TAYS  2013-10-29 28   
##  3 TAYS  2013-10-30 12   
##  4 TAYS  2013-10-31 14   
##  5 TAYS  2013-11-25 24   
##  6 TAYS  2013-11-26 22   
##  7 TAYS  2013-11-27 44   
##  8 TAYS  2013-11-28 18   
##  9 TAYS  2013-11-29 46   
## 10 TAYS  2013-11-30 8    
## # … with 7,717 more rows
…
write.csv(descs,file="../results/20200611delivery_descs.csv",row.names = FALSE)

#To anonymise make all counts of 1-5 as "1-5"
dailycounts$n[dailycounts$n < 6] <- "1-5"
dailycounts$class <- "delivery"
dailycounts

## # A tibble: 31,919 x 5
##    date       n     name                             size  class   
##    <date>     <chr> <fct>                            <chr> <chr>   
##  1 2018-02-25 1-5   STELLA OY KOTISAIRAALA, HELSINKI small delivery
##  2 2018-02-27 1-5   STELLA OY KOTISAIRAALA, HELSINKI small delivery
##  3 2018-03-01 1-5   STELLA OY KOTISAIRAALA, HELSINKI small delivery
##  4 2018-03-05 1-5   STELLA OY KOTISAIRAALA, HELSINKI small delivery
##  5 2018-03-07 1-5   STELLA OY KOTISAIRAALA, HELSINKI small delivery
##  6 2018-03-13 1-5   STELLA OY KOTISAIRAALA, HELSINKI small delivery
##  7 2018-03-17 1-5   STELLA OY KOTISAIRAALA, HELSINKI small delivery
##  8 2018-03-21 1-5   STELLA OY KOTISAIRAALA, HELSINKI small delivery
##  9 2018-03-26 1-5   STELLA OY KOTISAIRAALA, HELSINKI small delivery
## 10 2018-03-29 1-5   STELLA OY KOTISAIRAALA, HELSINKI small delivery
## # … with 31,909 more rows
…
#dailyreturns

descs <- dailyreturns %>% mutate(year=year(date)) %>% group_by(size,year) %>% summarise(mean=mean(n),
                                                                              sd=sd(n),
                                                                              median=median(n),
                                                                              q25=quantile(n,0.25),
                                                                              q75=quantile(n,0.75),
                                                                              mode1=Mode(n)[1],
                                                                              mode2=Mode(n)[2]
                                                                              )

write.csv(descs,file="../results/20200611returns_descs.csv",row.names = FALSE)
descs

## # A tibble: 23 x 9
## # Groups:   size [3]
##    size    year  mean    sd median   q25   q75 mode1 mode2
##    <chr>  <int> <dbl> <dbl>  <dbl> <dbl> <dbl> <dbl> <dbl>
##  1 large   2013  4.81  4.17      4  2        6     2     4
##  2 large   2014  3.68  2.91      3  2        5     1    NA
##  3 large   2015  3.98  3.19      3  2        6     1    NA
##  4 large   2016  4.26  3.74      3  2        6     1     2
##  5 large   2017  4.34  3.95      3  1        6     1    NA
##  6 large   2018  4.51  4.23      3  2        6     1    NA
##  7 large   2019  3.85  3.53      3  1        5     1    NA
##  8 large   2020  3.87  2.85      3  2        5     3    NA
##  9 medium  2013  2     0         2  2        2    NA    NA
## 10 medium  2014  2.05  1.20      2  1.75     2     2    NA
## # … with 13 more rows
…
